clientId,title,lastName,firstName,companyName,address1,address2,city,provinceId,country,postalCode,homeTelephone,cellTelephone,email,password,salt,manager
1,mr,Dawson,Jack,Qual-e-tree,3040 Sherbrooke St W,NULL,Montreal,11,Canada,H3Z 1A4,NULL,15141234567,cst.receive@gmail.com,collegedawson,should add it,1
2,ms,Dallas,Lilu,SomeCompany,75 Laurier Ave E,NULL,Ottawa,9,Canada,K1N 6N5,NULL,16130012345,cst.send@gmail.com,dawsoncollege,should add it,0
