1,Charles Petzold
2,Gerald Jay Sussman
3,Harold Abelson
4,Wladston Ferreira Filho
5,Robert C. Martin
6,Subrata Dasgupta
7,Steven S Skiena
8,Grant Smith
9,Workman Publishing
10,Kevin Wayne
11,Robert Sedgewick
12,Prof Hamzeh Roumani PhD
13,Roselyn Teukolsky M.S.
14,J. Glenn Brookshear
15,John Lewis
16,Nell Dale
17,Jason Montojo
18,Jennifer Campbell
19,Paul Gries
20,Mr. Kevin P Hare
21,Rachel H. Grunspan
22,Simson L Garfinkel
23,Computer Science Academy
24,N. David Mermin
25,Judith Gersting
26,G.Michael Schneider
27,DK
28,Bill Bryson
29,Richard Ingersoll
30,Holly Mayer
31,David Emory Shi
32,Robert Dean
33,Captivating History
34,Colin Woodard
35,Eric Chaline
36,H. W. Brands
37,Sun Tzu
38,Robert Greene
39,Ganesh Sitaraman
40,Harvey C. Mansfield
41,Alexis de Tocqueville
42,David A. Moss
43,Nancy MacLean
44,Archie Brown
45,Friedrich Engels
46,Karl Marx
47,Jane Austen
48,Emily Brontë
49,Bella Jean
50,Penny Boumelha
51,Thomas Hardy
52,George Eliot
53,Charlotte Brontë
54,Glen Craney
55,Susan Fraser King
56,Allison Pataki
57,Kelly Rimmer
58,Anna Mansell
59,Holly Martin
60,Lucy Coleman
61,Sofia Stril-Rever
62,Dalai Lama
63,Anne Frank
64,Phil Knight
65,Robert Iger
66,Walter Isaacson
67,Nelson Mandela
68,Brosmind
69,Maria Isabel Sanchez Vegara
70,Kobe Bryant
71,Robert G. Hagstrom
72,Stephen A. Schwarzman
73,Melinda Gates
74,Taylor Jenkins Reid
75,Alfred Lansing
76,Ron Chernow
77,Saint Augustine
78,Andrew Roberts
79,Jesse Thistle
80,Anonymous
81,Prince
82,Alafair Burke
83,Mary Higgins Clark
84,Agatha Christie
85,Carolyn Keene
86,Ben Straub
87,Scott Chacon
